[
  {
    "id": "9466394691",
    "visible": "true",
    "version": "1",
    "changeset": "116873675",
    "timestamp": "2022-02-01T15:34:41Z",
    "user": "UWJ",
    "uid": "4575638",
    "lat": "48.1392578",
    "lon": "37.7246077"
  }
]